BA project
…
df_name <- df_name %>% 
  rename( Gender = gender)

# Separate the column 'director' into 'Name' and 'Last_Name' at the first space
df_final <- df_final %>%
  separate(Director, into = c("Name", "Last_Name"), sep = " ", extra = "merge", fill = "right")

#merge the two dataset and match the name of the director to a gender  
df_final_gender <- left_join(df_final, df_name, by = c("Name" = "name"))
df_final_gender <- df_final_gender %>%
  select(-score)

print(df_final_gender)

# A tibble: 8,586 × 15
    Year Bechdel_test_result   Budget Revenue  Language Movie_Title             
   <int> <chr>                  <int> <chr>    <chr>    <chr>                   
 1  2001 FAIL                63160606 93343188 English  Kate & Leopold          
 2  2001 FAIL                63160606 93343188 English  Kate & Leopold          
 3  2001 FAIL                63160606 93343188 English  Kate & Leopold          
 4  2001 FAIL                63160606 93343188 French   Kate & Leopold          
 5  2001 FAIL                63160606 93343188 French   Kate & Leopold          
 6  2001 FAIL                63160606 93343188 French   Kate & Leopold          
 7  1970 PASS                 5997631 53978683 English  Beyond the Valley of th…
 8  1970 PASS                 5997631 53978683 English  Beyond the Valley of th…
 9  1971 FAIL                14386286 70780525 English  Escape from the Planet …
10  1971 FAIL                14386286 70780525 English  Escape from the Planet …
# ℹ 8,576 more rows
# ℹ 9 more variables: Country_of_Origin <chr>, Imdb_Rating <chr>, Name <chr>,
#   Last_Name <chr>, Genre <chr>, Imdb_Votes <chr>, Wins <dbl>,
#   Nominations <dbl>, Gender <int>
…
